<svg xmlns="http://www.w3.org/2000/svg" width="220" height="220">
  <rect x="10" y="30" width="200" height="160" rx="15" ry="15" fill="none" stroke="white" stroke-width="20"/>
  <circle cx="110" cy="30" r="30" fill="white" stroke="none" stroke-width="12"/>
  <circle cx="65" cy="190" r="25" fill="white" stroke="none" stroke-width="12"/>
  <circle cx="160" cy="190" r="25" fill="white" stroke="none" stroke-width="12"/>
  <polygon points="50,75 170,75 110,155" fill="#ff8800"/>
  <!--  <text x="110" y="150" font-family="Arial, sans-serif" font-size="100" fill="white" text-anchor="middle" font-weight="bolder"
  >MX</text>-->
</svg>
