{
  "files": {
    "main.css": "./static/css/main.f391dccf.css",
    "main.js": "./static/js/main.5c3f59b8.js",
    "index.html": "./index.html"
  },
  "entrypoints": [
    "static/css/main.f391dccf.css",
    "static/js/main.5c3f59b8.js"
  ]
}