{
  "files": {
    "main.css": "./static/css/main.794ccc90.css",
    "main.js": "./static/js/main.337de30e.js",
    "index.html": "./index.html"
  },
  "entrypoints": [
    "static/css/main.794ccc90.css",
    "static/js/main.337de30e.js"
  ]
}